\relax 
\@writefile{toc}{\contentsline {section}{\numberline {1}Legend}{1}}
\@writefile{toc}{\contentsline {section}{\numberline {2}Genki 1}{1}}
\@writefile{toc}{\contentsline {subsection}{\numberline {2.1}Vocabulary 1}{1}}
\@writefile{toc}{\contentsline {subsection}{\numberline {2.2}Additional Vocabulary 1}{2}}
\@writefile{toc}{\contentsline {subsection}{\numberline {2.3}Vocabulary 2}{3}}
\@writefile{toc}{\contentsline {subsection}{\numberline {2.4}Vocabulary 3}{4}}
\@writefile{toc}{\contentsline {subsection}{\numberline {2.5}Vocabulary 4}{5}}
